---
http_interactions:
- request:
    method: get
    uri: https://api.bestbuy.com/v1/stores(area(80202,25))?apiKey=hhp47b5bvjda7pj44gsauf78&format=json&pageSize=15&show=longName%2Ccity%2Cdistance%2Cphone%2CstoreType
    body:
      encoding: US-ASCII
      string: ''
    headers:
      User-Agent:
      - Faraday v0.9.2
  response:
    status:
      code: 200
      message: 
    headers:
      content-type:
      - application/json; charset=UTF-8
      date:
      - Tue, 14 Jun 2016 17:03:42 GMT
      server:
      - thin 1.6.1 codename Death Proof
      x-mashery-responder:
      - prod-j-worker-us-east-1d-122.mashery.com
      content-length:
      - '2917'
      connection:
      - Close
    body:
      encoding: UTF-8
      string: |-
        {
          "from": 1,
          "to": 15,
          "total": 17,
          "currentPage": 1,
          "totalPages": 2,
          "queryTime": "0.006",
          "totalTime": "0.018",
          "partial": false,
          "canonicalUrl": "/v1/stores(area(\"80202\",25))?show=longName,city,distance,phone,storeType&format=json&apiKey=hhp47b5bvjda7pj44gsauf78",
          "stores": [
            {
              "longName": "Best Buy Mobile - Cherry Creek Shopping Center",
              "city": "Denver",
              "distance": 3.25,
              "phone": "303-270-9189",
              "storeType": "Mobile"
            },
            {
              "longName": "Best Buy - Belmar",
              "city": "Lakewood",
              "distance": 5.28,
              "phone": "303-742-8039",
              "storeType": "BigBox"
            },
            {
              "longName": "Best Buy - Colorado Blvd",
              "city": "Denver",
              "distance": 5.61,
              "phone": "303-758-5805",
              "storeType": "BigBox"
            },
            {
              "longName": "Best Buy - Denver West",
              "city": "Lakewood",
              "distance": 8.38,
              "phone": "303-273-5617",
              "storeType": "BigBox"
            },
            {
              "longName": "Best Buy - Westminster",
              "city": "Westminster",
              "distance": 8.54,
              "phone": "303-426-4434",
              "storeType": "BigBox"
            },
            {
              "longName": "Best Buy Mobile - Colorado Mills",
              "city": "Lakewood",
              "distance": 8.59,
              "phone": "303-278-0601",
              "storeType": "Mobile"
            },
            {
              "longName": "Best Buy - Northglenn",
              "city": "Denver",
              "distance": 9.12,
              "phone": "303-252-8677",
              "storeType": "BigBox"
            },
            {
              "longName": "Best Buy Mobile - Town Center at Aurora",
              "city": "Aurora",
              "distance": 9.66,
              "phone": "303-326-0848",
              "storeType": "Mobile"
            },
            {
              "longName": "Best Buy - Aurora",
              "city": "Aurora",
              "distance": 9.83,
              "phone": "303-338-5797",
              "storeType": "BigBox"
            },
            {
              "longName": "Best Buy - Littleton",
              "city": "Littleton",
              "distance": 10.45,
              "phone": "303-932-7830",
              "storeType": "BigBox"
            },
            {
              "longName": "Best Buy - Southglenn",
              "city": "Centennial",
              "distance": 11.0,
              "phone": "303-797-3246",
              "storeType": "BigBox"
            },
            {
              "longName": "Best Buy - I70 & Tower Rd",
              "city": "Aurora",
              "distance": 11.73,
              "phone": "303-373-9284",
              "storeType": "BigBox"
            },
            {
              "longName": "Best Buy Mobile - Flatiron Crossing Mall ",
              "city": "Broomfield",
              "distance": 14.44,
              "phone": "303-466-8624",
              "storeType": "Mobile"
            },
            {
              "longName": "Best Buy - S.E. Denver",
              "city": "Lone Tree",
              "distance": 14.98,
              "phone": "303-649-9474",
              "storeType": "BigBox"
            },
            {
              "longName": "Best Buy - S.E. Aurora",
              "city": "Aurora",
              "distance": 18.51,
              "phone": "303-693-0166",
              "storeType": "BigBox"
            }
          ],
          "warnings": "Distances are in terms of miles (default)"
        }
    http_version: 
  recorded_at: Tue, 14 Jun 2016 17:03:42 GMT
recorded_with: VCR 3.0.3
